<svg width="10" height="10" viewBox="0 0 10 10" version="1.1" xmlns="http://www.w3.org/2000/svg" xmlns:xlink="http://www.w3.org/1999/xlink">
<g id="Canvas" fill="none">
<g id="Shape">
<path fill-rule="evenodd" clip-rule="evenodd" d="M 4.92167 0C 2.20375 0 0 2.20375 0 4.92167C 0 7.63958 2.20375 9.84375 4.92167 9.84375C 7.63958 9.84375 9.84375 7.63958 9.84375 4.92167C 9.84375 2.20375 7.63958 0 4.92167 0ZM 5.94625 7.62785C 5.69292 7.72784 5.49125 7.80368 5.34 7.85618C 5.18917 7.90868 5.01375 7.93493 4.81417 7.93493C 4.5075 7.93493 4.26875 7.85993 4.09875 7.71035C 3.92875 7.56076 3.84417 7.37118 3.84417 7.14076C 3.84417 7.05118 3.85042 6.95951 3.86292 6.86618C 3.87584 6.77285 3.89625 6.66785 3.92417 6.54993L 4.24125 5.42993C 4.26917 5.32243 4.29334 5.22035 4.3125 5.12535C 4.33167 5.02951 4.34084 4.9416 4.34084 4.8616C 4.34084 4.7191 4.31125 4.6191 4.2525 4.56285C 4.19292 4.5066 4.08084 4.4791 3.91375 4.4791C 3.83209 4.4791 3.74792 4.49118 3.66167 4.5166C 3.57625 4.54285 3.50209 4.5666 3.44125 4.58993L 3.525 4.24493C 3.7325 4.16035 3.93125 4.08785 4.12084 4.02785C 4.31042 3.96701 4.48959 3.93701 4.65834 3.93701C 4.96292 3.93701 5.19792 4.01118 5.36334 4.15785C 5.52792 4.30493 5.61084 4.49618 5.61084 4.73118C 5.61084 4.77993 5.605 4.86576 5.59375 4.98826C 5.5825 5.11118 5.56125 5.22326 5.53042 5.32618L 5.215 6.44285C 5.18917 6.53243 5.16625 6.63493 5.14542 6.74951C 5.125 6.86409 5.115 6.9516 5.115 7.01034C 5.115 7.15868 5.14792 7.25993 5.21459 7.31368C 5.28042 7.36743 5.39584 7.39451 5.55917 7.39451C 5.63625 7.39451 5.7225 7.38076 5.82 7.35409C 5.91667 7.32743 5.98667 7.30368 6.03084 7.28326L 5.94625 7.62785ZM 5.89043 3.09557C 5.74334 3.23223 5.56626 3.30057 5.35918 3.30057C 5.15251 3.30057 4.97418 3.23223 4.82584 3.09557C 4.67834 2.9589 4.60376 2.79265 4.60376 2.59848C 4.60376 2.40473 4.67876 2.23807 4.82584 2.10015C 4.97418 1.96182 5.15251 1.89307 5.35918 1.89307C 5.56626 1.89307 5.74376 1.96182 5.89043 2.10015C 6.03751 2.23807 6.11126 2.40473 6.11126 2.59848C 6.11126 2.79307 6.03751 2.9589 5.89043 3.09557Z" fill="#DADADA"/>
</g>
</g>
</svg>

